('/home/mkatychow/git_lokalny/TCP_lib/TCP_dist/build/TCPlib/PKG-00.pkg',
 {'BINARY': 1,
  'DATA': 1,
  'EXECUTABLE': 1,
  'EXTENSION': 1,
  'PYMODULE': 1,
  'PYSOURCE': 1,
  'PYZ': 0},
 [('PYZ-00.pyz',
   '/home/mkatychow/git_lokalny/TCP_lib/TCP_dist/build/TCPlib/PYZ-00.pyz',
   'PYZ'),
  ('struct',
   '/home/mkatychow/git_lokalny/TCP_lib/TCP_dist/build/TCPlib/localpycos/struct.pyo',
   'PYMODULE'),
  ('pyimod01_os_path',
   '/home/mkatychow/.local/lib/python3.8/site-packages/PyInstaller/loader/pyimod01_os_path.pyc',
   'PYMODULE'),
  ('pyimod02_archive',
   '/home/mkatychow/.local/lib/python3.8/site-packages/PyInstaller/loader/pyimod02_archive.pyc',
   'PYMODULE'),
  ('pyimod03_importers',
   '/home/mkatychow/.local/lib/python3.8/site-packages/PyInstaller/loader/pyimod03_importers.pyc',
   'PYMODULE'),
  ('pyiboot01_bootstrap',
   '/home/mkatychow/.local/lib/python3.8/site-packages/PyInstaller/loader/pyiboot01_bootstrap.py',
   'PYSOURCE'),
  ('pyi_rth_multiprocessing',
   '/home/mkatychow/.local/lib/python3.8/site-packages/PyInstaller/hooks/rthooks/pyi_rth_multiprocessing.py',
   'PYSOURCE'),
  ('TCPlib',
   '/home/mkatychow/git_lokalny/TCP_lib/TCP_dist/TCPlib.py',
   'PYSOURCE')],
 True,
 False,
 False,
 [])
